{
  "type": "service_account",
  "project_id": "htr-project-269509",
  "private_key_id": "56bdffa6cceb4a412c0b0c52b2adcfa8411487a2",
  "private_key": "-----BEGIN PRIVATE KEY-----\nMIIEvQIBADANBgkqhkiG9w0BAQEFAASCBKcwggSjAgEAAoIBAQCiyKvcqS5eM8OG\nkgXcBSVSmYeAKLrGerq+6QQDS4ND4wc2vu1T8nnyy/TaISCFylckoRoNTR4SKQYN\n4PD2aEXshiBovA6iERST40XLtGO04OQMG/qnSc6TddvOVs6XAI+xlQLWaZGTu5M7\nGTNFNlGVwy4EULyGllDl0nS9dYfHi+8rkG+MPJa69mX4zT1B9Bpx1TGXWFW4CMYS\nvuFACFdSh63xg1p1ggnZRNfsT8cOlvA3f+B3rfMlt02I00CVClEldNJerg5ucfXC\n3n2Mm6v9LZoCWE1v81nfBT+eLvaZIvrmJ6N9qyMZyuiD3hqp5N8dTpnYX/SM0cLx\niYBuWqXzAgMBAAECggEAB6txzDHycSt6Mmx4jInM3OFGokdeVCdd23c0zQeb9du2\nsCHQd8yXFKqpwjSeXioO72G3IwT3qOkNk84okaDkboT79kNUuIEahESd5L+pP6al\nnVvHdGYErtZLls4TP3JzfW1PwWoe8E7TBzf5k5tqvlDVvwv4yKnrbNtSIcfDBSf4\n97VlrvgA/U7Zwltdj9SA3/P/D4dTW2Xlsf8SsVF4FDVB3jznbJjcTWdMLNwg2KQP\niAGDAoInKZmXYI+nNshsLGJKrHIKBO3AJObzexURfFbl9fUhwPOKFy7xb1y/rlXm\nPBnQvrw6FU792BQm6NoxIHFEcBGIOC/OWboCU+n6GQKBgQDREdbIf8D9nHCu0nTT\niIEnJVdu+bvypRidJd4j+vlmlVhzcovu3NhVH4nvNRhSUZUmItKPijzDWjv90i6X\nDX//VBNVzqRoSzFbQWVLB4y+FGCK7ccL8ldfhlxfunkxL2v5CWvCs4hf+zBS9sBP\niq3xLOpnlBJ5F16MsI/6bM/UqwKBgQDHUwZEQ3Yr1khxOp6O58Y2ZqimLUTR8Tc6\n8ETDe5/wD6Jg7+dEj7MDemjFMPPpdiTUnj3/6a8d/ZPMVhGpLO0wTGcFzseooKcq\ng8JfIl5R7ejLMTezJd7TB8g0BxFrkD7l81Xf/27Q3X0gRls92YYNGb4eLPsebxP2\nsJd4AFQj2QKBgDOWTkQc2db6QgexIGiNtyicmy1j689ck207ScvhAqcgVLnv2r1u\nuuaOKK/gjwbI4J+PWhtXBdVCL6lasmpNR3cOHNNAcOrXGu+kfET+MOk6B/Rf5Yx6\nGLsWYTaxwXO0etTxUSiyugTM60idYCiAVJk89v3l2IUOkiLu8ifdr46PAoGACe+u\nmUqPooHNHK/iZZdSPzYA5D/PdXPD4BFILEKGZ44v9wseiUFsmBjLDkFxd0rnbR3y\nU0aP7zvL2VzVBozxyf2VCSoUs+hGTQ1CbEGnWAg3GaH7d9fEctqpdUaA7M7FA+uM\ndV0jZhAUg75eIAgu8Yo9+v0dC5hX8208L8Q8bYkCgYEAkZH6xdxetyvfiFk8QYi5\nfX4gfnrwCrWQunothG7DOhjopcM6ju/1Ts66F81J3wMnOOG+CV5MQrk8BNx4mvQQ\ncu609NC9xUvWIYFI7nFmyvHUfduCHolb8e5axdV9CQKL39ApBQST6Q+QjVNJTlaw\nAMmFtrTYHdYsmiEZzjQVeqI=\n-----END PRIVATE KEY-----\n",
  "client_email": "serviceacc@htr-project-269509.iam.gserviceaccount.com",
  "client_id": "109437342979517222007",
  "auth_uri": "https://accounts.google.com/o/oauth2/auth",
  "token_uri": "https://oauth2.googleapis.com/token",
  "auth_provider_x509_cert_url": "https://www.googleapis.com/oauth2/v1/certs",
  "client_x509_cert_url": "https://www.googleapis.com/robot/v1/metadata/x509/serviceacc%40htr-project-269509.iam.gserviceaccount.com"
}
